The particle filtering routine — pf • flapper
…
## Show that the distances between sequential positions are within the restrictions
# ... of the movement model
require(rlang)

#> Loading required package: rlang
path_dcpf <-
  path_dcpf %>%
  dplyr::group_by(.data$path_id) %>%
  dplyr::mutate(cell_x2 = dplyr::lag(.data$cell_x),
                cell_y2 = dplyr::lag(.data$cell_y),
                dist_1 = sqrt((.data$cell_x2 - .data$cell_x)^2 +
                                (.data$cell_y2 -.data$ cell_y)^2))
path_dcpf

#> # A tibble: 1,100 x 11
#> # Groups:   path_id [100]
#>    path_id timestep cell_id  cell_x  cell_y cell_z cell_pr  dist cell_x2 cell_y2
#>      <int>    <dbl>   <dbl>   <dbl>   <dbl>  <dbl>   <dbl> <dbl>   <dbl>   <dbl>
#>  1       1        0  635947 708280.  6.25e6   61.4   1      NA       NA  NA     
#>  2       1        1  638226 708180.  6.25e6   64.4   0.977 125   708280.  6.25e6
#>  3       1        2  641266 708080.  6.25e6   62.8   0.949 141.  708180.  6.25e6
#>  4       1        3  646591 708030.  6.25e6   58.2   0.711 182.  708080.  6.25e6
#>  5       1        4  651917 708005.  6.25e6   52.2   0.762 177.  708030.  6.25e6
#>  6       1        5  653439 708005.  6.25e6   50.4   0.999  50   708005.  6.25e6
#>  7       1        6  658007 708055.  6.25e6   46.7   0.890 158.  708005.  6.25e6
#>  8       1        7  656482 707980.  6.25e6   46.5   0.996  90.1 708055.  6.25e6
#>  9       1        8  653436 707930.  6.25e6   51.9   0.988 112.  707980.  6.25e6
#> 10       1        9  652670 707805.  6.25e6   61.8   0.974 127.  707930.  6.25e6
#> # … with 1,090 more rows, and 1 more variable: dist_1 <dbl>
…
